[gd_scene load_steps=2 format=2]

[ext_resource path="res://scripts/debug_velocity.gd" type="Script" id=1]



[node name="debug_velocity" type="Node2D"]
script = ExtResource( 1 )

[node name="velocity" type="ColorRect" parent="."]
margin_top = -5.0
margin_bottom = 5.0
rect_pivot_offset = Vector2( 0, 5 )
color = Color( 0.4, 0.733333, 0.305882, 1 )

[node name="force" type="ColorRect" parent="."]
margin_top = -5.0
margin_bottom = 5.0
rect_pivot_offset = Vector2( 0, 5 )
color = Color( 0.262745, 0.270588, 0.831373, 1 )

[node name="angular_velocity" type="ColorRect" parent="."]
margin_top = -5.0
margin_bottom = 5.0
rect_pivot_offset = Vector2( 0, 5 )
color = Color( 0.831373, 0.596078, 0.262745, 1 )
